6 Efficient data carpentry | Efficient R programming
…
The above code demonstrates the three arguments that pivot_longer() requires:

data, a data frame in which column names will become row values.

names_to, the name of the categorical variable into which the column names in the original datasets are converted.

values_to, the name of cell value columns.

As with other functions in the ‘tidyverse’, all arguments are given using bare names, rather than character strings. Arguments 2 and 3 can be specified by the user, and have no relation to the existing data. Furthermore an additional argument, set as -religion, was used to remove the religion variable from the gathering, ensuring that the values in this column are the first column in the output. If no -religion argument were specified, all column names are used in the key, meaning the results simply report all 180 column/value pairs resulting from the input dataset with 10 columns by 18 rows:

pivot_longer(pew, -religion)
#> # A tibble: 162 x 3
#>   religion name     value
#>   <chr>    <chr>    <int>
#> 1 Agnostic <$10k       27
#> 2 Agnostic $10--20k    34
#> 3 Agnostic $20--30k    60
#> 4 Agnostic $30--40k    81
#> # … with 158 more rows
…
The stringr vignette (vignette("stringr")).

A detailed tutorial on regex in base R (Sanchez 2013).

For more advanced topics, reading the documentation of and online articles about the stringi package, on which stringr depends.

Exercises

What are the three criteria of tidy data?

Load and look at subsets of these datasets. The first is the pew datasets we’ve been using already. The second reports the points that define, roughly, the geographical boundaries of different London boroughs. What is ‘untidy’ about each?

head(pew, 10)
#> # A tibble: 10 x 10
#>   religion `<$10k` `$10--20k` `$20--30k` `$30--40k` `$40--50k` `$50--75k`
#>   <chr>      <int>      <int>      <int>      <int>      <int>      <int>
#> 1 Agnostic      27         34         60         81         76        137
#> 2 Atheist       12         27         37         52         35         70
#> 3 Buddhist      27         21         30         34         33         58
#> 4 Catholic     418        617        732        670        638       1116
#> # … with 6 more rows, and 3 more variables: `$75--100k` <int>,
#> #   `$100--150k` <int>, `>150k` <int>
…
filter() is slightly more flexible than [: filter(wb_ineq, code == "AUS", Year == 1974) works as well as filter(wb_ineq, code == "AUS" & Year == 1974), and takes any number of conditions (see ?filter). filter() is slightly faster than base R.17 By avoiding the $ symbol, dplyr makes subsetting code concise and consistent with other dplyr functions. The first argument is a data frame and subsequent raw variable names can be treated as vector objects: a defining feature of dplyr. In the next section we’ll learn how this syntax can be used alongside the %>% ‘pipe’ command to write clear data manipulation commands.

There are dplyr equivalents of many base R functions but these usually work slightly differently. The dplyr equivalent of aggregate, for example is to use the grouping function group_by in combination with the general purpose function summarise (not to be confused with summary in base R), as we shall see in Section 6.4.5.

6.4.4 Chaining operations

Another interesting feature of dplyr is its ability to chain operations together. This overcomes one of the aesthetic issues with R code: you can end-up with very long commands with many functions nested inside each other to answer relatively simple questions. Combined with the group_by() function, pipes can help condense thousands of lines of data into something human readable. Here’s how you could use the chains to summarize average Gini indexes per decade, for example:

wb_ineq %>% 
  select(Year, gini) %>% 
  mutate(decade = floor(as.numeric(Year) / 10) * 10) %>% 
  group_by(decade) %>% 
  summarise(mean(gini, na.rm = TRUE))
#> # A tibble: 6 x 2
#>   decade `mean(gini, na.rm = TRUE)`
#>    <dbl>                      <dbl>
#> 1   1970                       40.1
#> 2   1980                       37.8
#> 3   1990                       42.0
#> 4   2000                       40.5
#> # … with 2 more rows
…
This new variable was used to group rows in the data frame with the same decade.

The mean value per decade was calculated, illustrating how average income inequality was greatest in 1990 but has since decreased slightly.

Let’s ask another question to see how the dplyr chaining workflow can be used to answer questions interactively: What are the 5 most unequal years for countries containing the letter g? Here’s how chains can help organise the analysis needed to answer this question step-by-step:

wb_ineq %>% 
  filter(grepl("g", Country)) %>%
  group_by(Year) %>%
  summarise(gini = mean(gini, na.rm  = TRUE)) %>%
  arrange(desc(gini)) %>%
  top_n(n = 5)
#> Selecting by gini
#> # A tibble: 5 x 2
#>   Year   gini
#>   <chr> <dbl>
#> 1 1980   46.8
#> 2 1993   46.0
#> 3 2013   44.6
#> 4 1981   43.6
#> # … with 1 more row
…
This section has provided only a taster of what is possible dplyr and why it makes sense from code writing and computational efficiency perspectives. For a more detailed account of data processing with R using this approach we recommend R for Data Science (Grolemund and Wickham 2016).

Exercises

Try running each of the chaining examples above line-by-line, so the first two entries for the first example would look like this:

wb_ineq
#> # A tibble: 6,925 x 9
#>   Country     code  Year  `Year Code` top10 bot10  gini b40_cons gdp_percap
#>   <chr>       <chr> <chr> <chr>       <dbl> <dbl> <dbl>    <dbl>      <dbl>
#> 1 Afghanistan AFG   1974  YR1974         NA    NA    NA       NA         NA
#> 2 Afghanistan AFG   1975  YR1975         NA    NA    NA       NA         NA
#> 3 Afghanistan AFG   1976  YR1976         NA    NA    NA       NA         NA
#> 4 Afghanistan AFG   1977  YR1977         NA    NA    NA       NA         NA
#> # … with 6,921 more rows

followed by:

wb_ineq %>% 
  select(Year, gini) 
#> # A tibble: 6,925 x 2
#>   Year   gini
#>   <chr> <dbl>
#> 1 1974     NA
#> 2 1975     NA
#> 3 1976     NA
#> 4 1977     NA
#> # … with 6,921 more rows
…
Note that while there are almost \(8000\) rows, there are fewer than 200 countries: factors would have been a more space efficient way of storing the countries data.

To aggregate the dataset using dplyr package, you divide the task in two: to group the dataset first and then to summarise, as illustrated below.18

library("dplyr")
group_by(ghg_ems, Country) %>%
  summarise(mean_eco2 = mean(Electricity, na.rm  = TRUE))
#> # A tibble: 188 x 2
#>   Country     mean_eco2
#>   <chr>           <dbl>
#> 1 Afghanistan   NaN    
#> 2 Albania         0.641
#> 3 Algeria        23.0  
#> 4 Angola          0.791
#> # … with 184 more rows

The example above relates to a wider programming issue: how much work should one function do? The work could have been done with a single aggregate() call. However, the Unix philosophy states that programs should “do one thing well”, which is how dplyr’s functions were designed. Shorter functions are easier to understand and debug. But having too many functions can also make your call stack confusing.

To reinforce the point, this operation is also performed below on the wb_ineq dataset:

countries = group_by(wb_ineq, Country)
summarise(countries, mean_gini = mean(gini, na.rm = TRUE))
#> # A tibble: 176 x 2
#>   Country     mean_gini
#>   <chr>           <dbl>
#> 1 Afghanistan     NaN  
#> 2 Albania          30.4
#> 3 Algeria          37.8
#> 4 Angola           50.6
#> # … with 172 more rows
…
#> Warning in min(gini, na.rm = TRUE): no non-missing arguments to min; returning
#> Inf
#> Warning in max(gini, na.rm = TRUE): no non-missing arguments to max; returning -
#> Inf
#> Warning in min(gini, na.rm = TRUE): no non-missing arguments to min; returning
#> Inf
#> Warning in max(gini, na.rm = TRUE): no non-missing arguments to max; returning -
#> Inf
#> Warning in min(gini, na.rm = TRUE): no non-missing arguments to min; returning
#> Inf
#> Warning in max(gini, na.rm = TRUE): no non-missing arguments to max; returning -
#> Inf
#> Warning in min(gini, na.rm = TRUE): no non-missing arguments to min; returning
#> Inf
#> # A tibble: 176 x 7
#>   Country       obs med_t10   sdev   n30  sdn30     dif
#>   <chr>       <int>   <dbl>  <dbl> <int>  <dbl>   <dbl>
#> 1 Afghanistan    40    NA   NaN        0 NA     -Inf   
#> 2 Albania        40    24.4   1.25     3  0.364    2.78
#> 3 Algeria        40    29.8   3.44     2  3.44     4.86
#> 4 Angola         40    38.6  11.3      2 11.3     16.0 
#> # … with 172 more rows
…
