Efficient R programming
…
Japan
197
155

United States
1462
709

Building on the ‘learning by doing’ ethic, the remainder of this section works through these functions to process and begin to analyse a dataset on economic equality provided by the World Bank. The input dataset can be loaded as follows:

library("readr")
fname = system.file("extdata/world-bank-ineq.csv", package = "efficient")
idata = read_csv(fname)
idata # print the dataset 
#> # A tibble: 6,925 x 9
#>   Country Name Country Code  Year Year Code
#>          <chr>        <chr> <int>     <chr>
#> 1  Afghanistan          AFG  1974    YR1974
#> 2  Afghanistan          AFG  1975    YR1975
#> 3  Afghanistan          AFG  1976    YR1976
#> 4  Afghanistan          AFG  1977    YR1977
#> # ... with 6,921 more rows, and 5 more variables: Income share held by
#> #   highest 10% [SI.DST.10TH.10] <chr>, Income share held by lowest 10%
#> #   [SI.DST.FRST.10] <chr>, GINI index [SI.POV.GINI] <chr>, Survey mean
#> #   consumption or income per capita, bottom 40% (2005 PPP $ per day)
#> #   [SI.SPR.PC40] <chr>, Survey mean consumption or income per capita,
#> #   total population (2005 PPP $ per day) [SI.SPR.PCAP] <chr>
…
Note that while there are almost 8000 rows, there are less than 200 countries.

Note that the ghg_ems column names were cleaned using the command word(names(ghg_ems), sep = " |/“) from the stringr package before it was saved as a dataset within the efficient package. ” |/“ in this context means”any space or forward slash is a word break“. See the Pattern matching section in vignette(”stringr“) for more on this. For details about the ghg_ems dataset, see the documentation in ?efficient::ghg_ems.

To aggregate the dataset using dplyr package, you divide the task in two: to group the dataset first and then to summarise, as illustrated below.17

library("dplyr")
group_by(ghg_ems, Country) %>%
  summarise(mean_eco2 = mean(Electricity, na.rm  = TRUE))
#> # A tibble: 188 x 2
#>       Country mean_eco2
#>         <chr>     <dbl>
#> 1 Afghanistan       NaN
#> 2     Albania     0.641
#> 3     Algeria    23.015
#> 4      Angola     0.791
#> # ... with 184 more rows

The example above relates to a philosophical question in programming: how much work should one function do? The Unix philosophy states that programs should “do one thing well”. And shorter functions are easier to understand and debug. But having too many functions can also make your call stack confusing, and the code hard to maintain. In general, being modular and specific is advantageous for clarity, and this modular approach is illustrated in the above example with the dual group_by and summarise stages.

To reinforce the point, this operation is also performed below on the idata dataset:

countries = group_by(idata, Country)
summarise(countries, gini = mean(gini, na.rm  = TRUE))
#> # A tibble: 176 x 2
#>       Country  gini
#>         <chr> <dbl>
#> 1 Afghanistan   NaN
#> 2     Albania  30.4
#> 3     Algeria  37.8
#> 4      Angola  50.6
#> # ... with 172 more rows
Note that summarise is highly versatile, and can be used to return a customised range of summary statistics:

summarise(countries,
  # number of rows per country
  obs = n(), 
  med_t10 = median(top10, na.rm  = TRUE),
  # standard deviation
  sdev = sd(gini, na.rm  = TRUE), 
  # number with gini > 30
  n30 = sum(gini > 30, na.rm  = TRUE), 
  sdn30 = sd(gini[ gini > 30 ], na.rm  = TRUE),
  # range
  dif = max(gini, na.rm  = TRUE) - min(gini, na.rm  = TRUE)
  )
#> # A tibble: 176 x 7
#>       Country   obs med_t10  sdev   n30  sdn30   dif
#>         <chr> <int>   <dbl> <dbl> <int>  <dbl> <dbl>
#> 1 Afghanistan    40      NA   NaN     0     NA    NA
#> 2     Albania    40    24.4  1.25     3  0.364  2.78
#> 3     Algeria    40    29.8  3.44     2  3.437  4.86
#> 4      Angola    40    38.6 11.30     2 11.300 15.98
#> # ... with 172 more rows
…
Another interesting feature of dplyr is its ability to chain operations together. This overcomes one of the aesthetic issues with R code: you can end end-up with very long commands with many functions nested inside each other to answer relatively simple questions.

What were, on average, the 5 most unequal years for countries containing the letter g?

Here’s how chains work to organise the analysis in a logical step-by-step manner:

idata %>% 
  filter(grepl("g", Country)) %>%
  group_by(Year) %>%
  summarise(gini = mean(gini, na.rm  = TRUE)) %>%
  arrange(desc(gini)) %>%
  top_n(n = 5)
#> Selecting by gini
#> # A tibble: 5 x 2
#>    Year  gini
#>   <int> <dbl>
#> 1  1980  46.9
#> 2  1993  46.0
#> 3  2013  44.5
#> 4  1981  43.6
#> # ... with 1 more rows
…
